{
  "users": [
    {
      "userId": "0",
      "userMail": "test",
      "userPassword": "test",
      "userCategories": [
        "health",
        "entertainment"
      ],
      "language": "pl",
      "todoPoints": 214,
      "templateTodo": {
        "category": "test category",
        "duration": "test duration",
        "importance": "test importance"
      },
      "todos": [],
      "completedTodos": 0,
      "currentTodos": 0
    },
    {
      "userId": "1",
      "userMail": "eee@eee",
      "userPassword": "eeeeeeee",
      "userCategories": [
        "health",
        "entertainment"
      ],
      "language": "pl",
      "todoPoints": 214,
      "templateTodo": {
        "category": "test category",
        "duration": "test duration",
        "importance": "test importance"
      },
      "todos": [],
      "completedTodos": 0,
      "currentTodos": 0
    }
  ]
}
